0,2,405.2601,155.3522,471.9883,179.1149,0.9447,1.4802,1.6227,4.0498,-10.7449,-0.0909,45.6310,-0.3316,-0.1003
1,2,495.1691,151.1829,542.6942,192.4757,0.9382,1.4850,1.6012,3.8771,-3.4289,0.4322,27.4729,-1.7514,-1.6272
1,2,405.1896,155.3957,470.5766,179.1576,0.0907,1.4799,1.6100,3.9526,-10.7879,-0.0880,45.6133,-0.3421,-0.1098
1,2,507.6545,148.2573,549.3649,179.2288,-0.2963,1.4731,1.6042,3.8385,-3.8232,-0.0663,35.7234,-1.5452,-1.4386
2,2,406.1574,156.1168,472.7137,179.8275,0.3804,1.4801,1.6270,4.0345,-10.6957,-0.0435,45.6457,-0.3359,-0.1057
3,2,406.3831,156.1531,473.3911,179.7902,0.5838,1.4799,1.6343,4.0798,-10.7001,-0.0461,45.7891,-0.3322,-0.1026
3,2,531.2086,149.6871,567.1473,182.3421,0.0227,1.4578,1.5796,3.6299,-2.6081,0.0837,33.4084,-1.6168,-1.5388
3,2,222.0470,141.4910,287.3619,174.6258,-0.0052,1.4935,1.6527,4.1881,-17.1724,-0.3062,34.8297,1.4315,1.8895
3,2,237.2397,156.2269,308.0905,198.3459,-0.3324,1.4931,1.5551,3.6140,-12.6105,0.6342,26.9740,-1.7439,-1.3066
3,2,304.0976,158.7463,367.9532,192.2371,-0.6995,1.4763,1.5952,3.7689,-12.5088,0.5188,33.0555,1.5588,1.9205
4,2,345.9130,146.0541,395.1951,184.2288,2.2738,1.6468,1.7001,4.3250,-10.8113,0.1623,32.7869,1.3632,1.6817
4,2,518.2994,152.6278,548.7967,178.6189,0.6378,1.4673,1.5868,3.8592,-4.2242,-0.1160,42.1570,-1.6118,-1.5119
4,2,27.8988,158.1671,139.8989,190.2623,-0.6091,1.4938,1.6156,4.0582,-24.9738,0.4558,33.9732,-0.1333,0.5006
5,2,489.2312,149.3851,528.9910,180.1984,1.3669,1.4967,1.6070,3.9052,-4.8881,-0.0149,36.3494,-1.5943,-1.4606
5,2,338.5073,148.6005,396.2708,185.5486,-0.3230,1.5942,1.6640,4.1687,-10.9078,0.2193,32.6618,1.4670,1.7893
5,2,402.1540,155.5983,468.9722,179.4141,-0.7449,1.4840,1.6267,4.0265,-10.9460,-0.0711,45.6564,-0.3587,-0.1234
6,2,401.6695,155.7016,469.3500,179.4504,1.3230,1.4806,1.6391,4.1049,-10.9512,-0.0686,45.6554,-0.3369,-0.1015
6,2,175.9858,153.0975,299.4770,195.2682,-0.1436,1.5235,1.6107,3.7732,-13.6860,0.5351,26.4448,3.0875,3.5650
6,2,191.2947,156.2338,300.8670,194.3555,-0.5921,1.5191,1.5957,3.6822,-14.6718,0.5536,28.9757,3.1374,3.6061
6,2,439.6536,152.6739,513.5894,179.5712,-0.6259,1.4734,1.6035,3.9185,-7.3237,-0.0534,40.2693,-0.3611,-0.1812
7,2,401.5991,153.8712,468.7225,177.7790,0.5513,1.4803,1.6308,4.0556,-10.9482,-0.1796,45.5500,-0.3414,-0.1055
7,2,507.3053,150.2676,547.8285,180.7359,-0.4930,1.4640,1.5798,3.7245,-3.8873,0.0128,35.8464,-1.5505,-1.4424
7,2,438.7851,152.2647,514.6504,179.3516,-0.7221,1.4788,1.6184,3.9629,-7.3214,-0.0668,40.3583,-0.4734,-0.2940
8,2,454.8759,150.7576,508.1002,188.3265,0.0465,1.4813,1.6246,4.0033,-5.1679,0.3101,29.8897,-1.5891,-1.4179
8,2,255.1657,153.3580,330.2993,189.3865,-0.4125,1.5052,1.6111,3.9590,-13.8350,0.3727,31.5150,-1.5723,-1.1587
8,2,510.7343,162.2732,624.8527,203.7338,-0.5204,1.4609,1.6176,3.9410,-1.3586,0.8202,26.0319,-2.9759,-2.9237
9,2,175.0900,150.9240,301.3351,191.0614,3.9790,1.4488,1.6007,3.8761,-13.6583,0.3827,26.4307,3.0822,3.5592
9,2,405.2781,155.6690,472.1874,179.4395,1.2115,1.4822,1.6223,4.0649,-10.7388,-0.0693,45.6345,-0.3289,-0.0978
10,2,141.4635,135.9368,251.0597,184.0248,1.9819,1.4725,1.6099,3.9138,-13.5496,0.1095,23.6509,1.5063,2.0265
10,2,401.5869,155.7762,469.4540,179.5217,1.0771,1.4812,1.6405,4.1182,-10.9549,-0.0639,45.6743,-0.3370,-0.1016
11,2,302.8444,155.3248,369.0216,189.7023,1.3978,1.4923,1.6406,4.0502,-12.3820,0.4009,32.7373,1.5386,1.9002
11,2,404.3718,155.0185,471.6547,179.1058,0.5114,1.5019,1.6076,4.0888,-10.7937,-0.0916,45.6743,-0.3330,-0.1010
11,2,344.3312,146.9624,393.1729,185.2337,-0.5496,1.6411,1.6702,4.1285,-10.8054,0.2045,32.5057,1.3640,1.6849
12,2,405.3945,155.4808,472.1895,179.4243,0.8861,1.4921,1.6117,4.0471,-10.7296,-0.0703,45.6152,-0.3371,-0.1061
13,2,497.3818,150.0941,539.7893,181.3764,1.2342,1.4828,1.6135,3.8552,-4.2899,0.0430,35.4478,-1.5580,-1.4375
13,2,401.7312,156.0634,468.7744,179.8154,0.4065,1.4818,1.6328,4.0579,-10.9637,-0.0443,45.6400,-0.3420,-0.1062
14,2,494.0242,149.8622,534.8545,181.0086,2.3700,1.4774,1.5997,3.7472,-4.4966,0.0256,35.4134,-1.5791,-1.4528
14,2,404.9363,155.1515,470.2769,178.8954,-0.6670,1.4780,1.6192,3.9672,-10.8041,-0.1054,45.5995,-0.3257,-0.0931
15,2,400.4275,154.9782,467.6214,178.8075,0.2632,1.4814,1.6293,4.0511,-11.0388,-0.1114,45.6283,-0.3555,-0.1182
16,2,404.7580,155.4729,471.5830,179.2318,0.1004,1.4840,1.6263,4.0502,-10.8046,-0.0834,45.7672,-0.3469,-0.1151
16,2,445.2809,148.8578,518.6309,176.7993,-0.2435,1.5291,1.6204,3.9594,-7.0497,-0.2172,40.3999,2.8456,3.0184
17,2,487.5784,148.9889,527.7802,180.0335,1.1229,1.4605,1.5858,3.7168,-4.8061,-0.0230,35.1932,-1.5967,-1.4610
17,2,505.2886,145.3146,545.9102,182.0667,0.8981,1.6054,1.6477,4.1032,-3.6608,0.0699,32.9725,1.5183,1.6289
17,2,401.4797,153.1994,468.1168,177.0672,0.1419,1.4784,1.6244,4.0124,-11.0028,-0.2277,45.6895,-0.3641,-0.1278
17,2,105.9141,145.9430,198.2363,182.5134,0.0473,1.4626,1.5688,3.7910,-19.1419,0.0820,29.8274,-2.6744,-2.1039
18,2,484.8832,150.2678,525.6441,180.8428,1.7426,1.4446,1.5282,3.3822,-4.9181,0.0176,35.0991,-1.5636,-1.4244
18,2,530.4076,148.0417,566.8520,181.4540,1.6606,1.4615,1.5921,3.9229,-2.6230,0.0432,32.9327,-1.6393,-1.5598
18,2,406.4161,155.8551,474.5539,179.6771,0.9322,1.4860,1.6423,4.1263,-10.6324,-0.0535,45.6695,-0.3431,-0.1143
18,2,309.4696,165.3339,470.3340,248.4723,-0.7857,1.4679,1.5657,3.5937,-4.4696,1.2018,14.2918,0.7699,1.0730
19,2,536.3177,148.6832,576.7786,182.4031,1.4575,1.4668,1.6036,3.9358,-2.2042,0.0843,32.7201,-1.5696,-1.5023
19,2,402.9392,155.4101,473.4938,179.6875,0.6105,1.5148,1.6110,4.2792,-10.7843,-0.0529,45.7035,-0.3498,-0.1181
19,2,479.4897,148.7281,535.1870,180.3918,0.2639,1.4868,1.6213,3.8568,-4.8161,-0.0043,35.2549,-1.3869,-1.2511
19,2,0.0000,154.9290,65.0089,187.1920,-0.0363,1.4832,1.6000,3.8118,-28.2791,0.3091,33.6097,-0.1694,0.5301
20,2,483.1455,148.9614,528.4933,180.1429,2.0291,1.4564,1.6084,3.9187,-4.8695,-0.0173,35.0456,-1.5449,-1.4068
20,2,406.3305,155.1345,472.7748,178.8504,0.4919,1.4762,1.6277,4.0219,-10.6874,-0.1085,45.6440,-0.3403,-0.1103
20,2,441.2070,150.0070,516.9423,178.0347,0.0255,1.5311,1.6248,4.0147,-7.2012,-0.1447,40.3792,-0.3777,-0.2013
21,2,480.9626,150.5977,526.7012,182.1010,0.0461,1.4628,1.5913,3.7619,-4.9260,0.0758,34.7336,-1.5358,-1.3949
22,2,481.1160,150.7526,523.6118,181.8672,0.8036,1.4463,1.5631,3.5346,-4.9902,0.0650,34.6307,-1.5678,-1.4246
23,2,242.6847,149.2014,338.5291,181.0312,-0.1042,1.4940,1.6158,3.9307,-15.1523,0.0264,34.1889,3.0378,3.4550
24,2,26.4718,152.5391,130.3881,184.1491,-0.6521,1.4728,1.5496,3.7396,-25.1759,0.1715,33.8696,-0.0853,0.5540
25,2,0.0000,151.5801,97.1339,185.7108,-0.5616,1.5759,1.5771,3.7062,-27.1361,0.2421,34.5854,1.7092,2.3745
26,2,557.3629,151.3531,585.2344,177.3403,-0.5475,1.4813,1.6079,4.0197,-2.0290,-0.1992,42.8345,1.5330,1.5803
27,2,0.6329,151.4585,94.0161,183.4047,-0.1741,1.4765,1.5157,3.4460,-27.1294,0.1357,34.5022,1.7462,2.4126
27,2,468.1710,152.6748,503.8845,184.6962,-0.8434,1.4624,1.5629,3.5208,-5.7131,0.1931,34.1291,-1.6968,-1.5309
28,2,474.6337,151.3045,517.9209,183.2112,2.7215,1.4687,1.6119,3.8781,-5.2616,0.1263,34.5007,-1.5956,-1.4442
28,2,437.5905,151.2328,510.9933,178.2997,-0.0593,1.4759,1.6070,3.9569,-7.4303,-0.1275,40.0784,-0.2777,-0.0944
28,2,5.4425,158.3906,101.7514,190.2653,-0.2909,1.4735,1.5717,3.6318,-26.8836,0.4529,34.5937,-1.4191,-0.7584
29,2,0.0000,146.1573,50.9643,185.2416,1.9037,1.4999,1.6222,4.1020,-24.6420,0.1835,28.0382,0.0488,0.7698
29,2,570.4597,148.5585,666.4082,182.8439,1.5752,1.4785,1.6094,4.1068,0.6111,0.1026,32.1721,-0.4966,-0.5156
29,2,494.4215,147.4360,542.1474,180.5793,0.6523,1.4835,1.6115,3.9414,-4.0794,0.0050,33.6516,-1.5215,-1.4009
29,2,444.4487,149.7133,522.7238,177.1778,0.4869,1.4962,1.6425,4.1771,-6.9430,-0.1953,40.3637,-0.3510,-0.1807
30,2,451.1181,149.6049,527.5297,176.8871,0.7006,1.4933,1.6468,4.1073,-6.6438,-0.2130,40.5163,-0.3266,-0.1640
30,2,570.8103,148.4795,668.8093,182.9498,-0.2935,1.4895,1.6224,4.1416,0.6550,0.1073,32.0764,-0.3852,-0.4056
31,2,496.7874,150.8603,525.6745,177.1161,1.2055,1.4580,1.4879,3.6436,-5.4876,-0.2068,41.6132,1.4952,1.6263
32,2,401.5756,154.8229,468.9698,178.6201,0.8661,1.4801,1.6368,4.0843,-10.9658,-0.1239,45.6533,-0.3391,-0.1034
32,2,496.4511,149.2235,527.9105,175.8012,-0.7737,1.4694,1.5747,3.7158,-5.4335,-0.2882,41.6580,1.5136,1.6433
33,2,493.0928,150.1872,530.3125,183.7558,2.4527,1.4878,1.6117,3.7788,-4.4611,0.1458,33.3280,-1.7349,-1.6018
33,2,497.0800,150.8262,525.9406,177.8642,2.0027,1.5140,1.6227,3.9684,-5.5384,-0.1631,42.0558,1.4541,1.5850
33,2,0.0000,154.1533,83.9586,186.0711,-0.6871,1.4756,1.6195,3.9709,-27.6245,0.2590,34.7854,-1.7584,-1.0872
33,2,0.0000,143.2597,35.3615,184.4714,-0.8173,1.4776,1.6013,3.9189,-24.4603,0.1439,27.1200,-0.6059,0.1280
34,2,496.5316,149.9952,526.6230,177.8262,3.2444,1.5502,1.6703,4.2136,-5.5073,-0.1657,41.9828,1.4649,1.5954
34,2,405.1613,156.1185,472.4805,179.8056,0.8121,1.4817,1.6330,4.0781,-10.7639,-0.0451,45.7746,-0.3497,-0.1187
34,2,0.0000,151.8634,104.1067,193.5411,-0.7868,1.4699,1.6335,4.1153,-20.9694,0.4615,25.8112,3.1108,3.7931
35,2,400.4507,155.1994,467.4742,178.9819,0.7806,1.4801,1.6324,4.0628,-11.0438,-0.0997,45.6243,-0.3360,-0.0985
35,2,546.1720,149.1588,605.7516,203.5031,-0.1667,1.5009,1.6490,4.0801,-0.9646,0.6369,21.6108,-1.6334,-1.5888
35,2,516.5348,158.7902,567.4267,195.6587,-0.7643,1.5334,1.6611,4.1782,-2.7576,0.6319,31.5369,-1.5098,-1.4225
36,2,437.3851,152.6706,515.0832,179.3723,2.7031,1.4661,1.6361,4.1734,-7.3691,-0.0653,40.3820,-0.3252,-0.1447
36,2,407.0046,155.8808,474.7469,179.7252,0.0658,1.4923,1.6416,4.0960,-10.6438,-0.0506,45.8358,-0.3616,-0.1334
36,2,28.9149,140.8940,121.9522,196.6132,-0.2009,1.4656,1.6117,3.9646,-15.4929,0.4254,20.5625,-2.3578,-1.7121
36,2,506.6989,152.4116,547.7456,186.8476,-0.5482,1.4614,1.6019,3.8605,-3.4786,0.2709,31.9642,-1.6152,-1.5068
36,2,49.4120,148.6578,156.7306,188.7506,-0.5552,1.4764,1.6212,4.0048,-19.8075,0.3053,28.0826,-1.6361,-1.0218
38,2,404.7697,155.5799,473.2606,179.5891,0.9874,1.4966,1.6213,4.1588,-10.7172,-0.0593,45.6244,-0.3331,-0.1024
38,2,435.8458,150.1981,514.2158,177.5517,0.0082,1.4873,1.6484,4.1450,-7.4673,-0.1765,40.7541,-0.6449,-0.4636
38,2,488.6936,149.1267,525.2608,178.7220,-0.6309,1.4849,1.6098,3.9179,-5.1884,-0.0985,37.7097,-1.6234,-1.4867
39,2,406.4563,155.2259,473.5730,178.9233,0.8873,1.4801,1.6341,4.0819,-10.6927,-0.1040,45.7950,-0.3367,-0.1073
39,2,510.9866,149.4624,549.6938,184.2539,-0.1487,1.4764,1.5956,3.7959,-3.3394,0.1608,31.9448,-1.6365,-1.5323
39,2,191.1972,137.7255,270.2678,173.3431,-0.4091,1.4820,1.5895,3.9043,-16.9402,-0.3441,32.1701,1.5537,2.0384
40,2,250.2085,150.9252,355.7296,186.4674,-0.7258,1.4806,1.6222,4.0275,-13.3544,0.2501,31.3097,-0.6460,-0.2428
41,2,484.7074,150.6152,526.0096,179.9704,-0.1457,1.4702,1.5848,3.7497,-5.2242,-0.0280,37.3663,-1.5495,-1.4106
42,2,0.0000,131.3951,95.2507,192.7703,0.5060,1.4827,1.6041,3.9474,-16.1038,0.2980,18.8929,-0.6358,0.0701
42,2,476.2161,152.7807,555.0580,182.7654,0.0986,1.4818,1.5961,3.9562,-4.6302,0.1134,36.9123,-0.8005,-0.6757
42,2,393.3644,153.8303,431.7787,178.2695,-0.6472,1.5203,1.6305,4.0534,-12.5802,-0.1517,46.4252,1.5150,1.7796
43,2,314.5213,154.1998,370.8595,186.3797,0.7043,1.5030,1.6067,3.7134,-12.8964,0.2761,34.9207,1.5095,1.8633
43,2,548.5161,151.5239,579.9004,179.4945,0.6272,1.4728,1.5871,3.9138,-2.3239,-0.0575,39.3955,1.4735,1.5324
43,2,0.0000,153.2635,79.7270,185.5455,-0.3747,1.4796,1.6149,3.9075,-27.6171,0.2327,34.4653,-1.7416,-1.0661
44,2,0.0000,133.1108,78.9846,193.9041,0.4349,1.4867,1.5508,3.6988,-16.4927,0.3294,18.9534,-0.5845,0.1316
44,2,311.0805,151.2190,369.7531,183.7716,-0.4593,1.5166,1.6046,3.7544,-12.9758,0.1539,34.8409,1.5355,1.8921
45,2,479.9984,146.9818,557.5188,182.3311,1.4289,1.5017,1.6377,4.1067,-3.8669,0.0793,32.2398,-1.1532,-1.0338
45,2,403.6278,156.1560,470.2018,180.0284,0.3846,1.4887,1.6014,4.0188,-10.8418,-0.0300,45.5825,-0.3483,-0.1148
45,2,0.0000,139.4766,69.2235,197.2564,-0.4364,1.4810,1.6080,4.0112,-16.4474,0.4311,20.2195,-2.1865,-1.5036
46,2,506.7803,151.7878,554.4256,187.0875,1.4747,1.4567,1.5897,3.8327,-3.2305,0.2733,31.1119,-1.5409,-1.4374
46,2,436.5932,148.6243,511.1357,176.5877,-0.6761,1.5200,1.6302,3.9694,-7.4810,-0.2293,40.2554,-0.3380,-0.1543
47,2,19.6152,153.1145,118.4832,184.8892,1.1280,1.4610,1.5674,3.5959,-25.3153,0.2033,33.4285,0.0796,0.7278
48,2,555.2270,150.8792,603.7710,189.9733,0.6548,1.4916,1.6247,3.9880,-1.1350,0.3629,29.0533,1.4415,1.4806
48,2,481.6274,150.0979,519.6513,184.9517,-0.7814,1.4849,1.6099,3.8681,-4.7938,0.1911,32.1553,-1.7323,-1.5843
49,2,563.0358,149.8729,605.4697,189.7874,1.5003,1.5358,1.6346,3.8645,-0.9107,0.3589,29.1680,-1.6160,-1.5848
49,2,402.4868,155.6003,470.4431,179.3614,0.8684,1.4814,1.6408,4.1198,-10.8947,-0.0746,45.6792,-0.3406,-0.1064
50,2,504.7659,149.2189,534.4432,175.8039,2.7090,1.4744,1.6157,3.8050,-5.0220,-0.2898,41.8672,1.4861,1.6055
50,2,401.5970,156.0588,469.1465,179.7802,1.1918,1.4806,1.6393,4.1045,-10.9607,-0.0466,45.6552,-0.3305,-0.0949
50,2,536.6592,149.3746,575.0013,175.4209,0.3883,1.4666,1.5040,3.7334,-2.9167,-0.3183,42.5343,1.7284,1.7969
50,2,453.7173,154.7699,543.7071,185.9726,-0.2840,1.4760,1.6364,4.1253,-5.1156,0.2603,34.2714,-0.0065,0.1417
50,2,0.0000,143.3982,31.7283,184.5899,-0.5667,1.4865,1.5891,3.9556,-24.7112,0.1491,27.1047,-0.4624,0.2768
50,2,48.8761,147.3101,156.7306,187.3006,-0.5676,1.4746,1.6152,3.9781,-19.8270,0.2523,28.0937,-1.6215,-1.0069
51,2,0.0000,142.6591,41.7513,199.6215,0.9284,1.4592,1.6027,3.9009,-17.3221,0.4914,20.0496,-2.3614,-1.6489
51,2,405.2070,154.8500,471.1182,178.5613,0.4227,1.4740,1.6197,3.9744,-10.7732,-0.1278,45.6319,-0.3523,-0.1205
51,2,501.8083,151.4773,529.9054,177.7944,-0.4668,1.4638,1.5699,3.6431,-5.2434,-0.1652,41.6164,1.4514,1.5767
51,2,413.5497,151.2352,480.9871,183.8407,-0.5819,1.5050,1.6085,3.9807,-7.6882,0.1557,34.7591,1.8226,2.0403
52,2,0.0000,128.0105,52.1467,190.5177,2.3381,1.5006,1.6055,4.1073,-17.3968,0.2421,18.7884,-0.5978,0.1491
52,2,503.3738,149.0720,531.8878,175.6449,2.2032,1.4673,1.5820,3.7491,-5.1194,-0.2983,41.6911,1.4725,1.5947
52,2,70.5064,145.1530,188.6199,184.4081,2.0178,1.4537,1.5537,3.5758,-18.8335,0.1462,28.1019,-0.9972,-0.4067
53,2,0.0000,132.3236,30.4206,197.4348,1.4766,1.5174,1.6263,4.1365,-17.7187,0.3963,18.4394,2.4301,3.1956
53,2,501.6848,148.6914,533.9402,175.4582,0.0597,1.4771,1.6472,3.8310,-5.1056,-0.3101,41.7108,1.5134,1.6352
53,2,393.2926,153.4927,431.4571,177.5725,-0.6233,1.4951,1.6153,3.9556,-12.5887,-0.1992,46.4023,1.5198,1.7847
54,2,527.7595,183.3735,660.2241,232.1579,-0.2128,1.4713,1.6274,4.0494,-0.3305,1.5676,22.3637,0.0603,0.0751
54,2,393.0962,153.9045,432.1616,178.1339,-0.7494,1.5064,1.6313,4.0542,-12.5741,-0.1610,46.4191,1.5261,1.7907
55,2,243.9315,148.3356,348.2029,183.7803,2.1312,1.4750,1.6153,3.9250,-13.6743,0.1380,31.3880,-0.7980,-0.3872
55,2,551.9001,175.4061,593.4311,213.7374,0.4118,1.4541,1.5768,3.7135,-1.3614,1.2624,28.7172,-1.6293,-1.5819
55,2,337.4679,150.3752,428.4546,185.3265,-0.7097,1.5017,1.5801,3.6236,-10.0679,0.2088,32.0856,-0.6369,-0.3328
56,2,533.8934,149.0056,568.7341,179.4909,0.0163,1.4866,1.6269,4.0011,-2.7449,-0.0538,36.6328,-1.6015,-1.5267
57,2,527.6588,147.0393,565.4045,176.7969,0.1534,1.5184,1.6274,3.9389,-3.1477,-0.2111,38.5625,-1.5414,-1.4600
58,2,431.1013,150.5011,514.8291,178.0947,0.4820,1.4936,1.6765,4.4189,-7.5463,-0.1431,40.5369,-0.5954,-0.4113
58,2,525.8564,148.5787,564.6215,177.8418,-0.2944,1.4934,1.5999,3.8453,-3.2049,-0.1504,38.3973,-1.5201,-1.4368
58,2,307.0206,148.9513,366.2387,191.8972,-0.7898,1.5765,1.6222,3.7712,-10.5551,0.4199,27.9617,-1.7757,-1.4148
59,2,563.3547,154.2143,597.8914,185.6636,0.3914,1.5404,1.6436,4.3102,-1.2284,0.2543,36.7832,1.5732,1.6066
60,2,520.2998,148.2788,555.3796,177.2729,-0.1493,1.4766,1.6200,3.9843,-3.6144,-0.1834,38.4608,-1.5928,-1.4991
61,2,538.9189,149.6562,573.5824,178.9870,3.3686,1.4579,1.6003,3.8282,-2.6313,-0.0828,37.3462,-1.6983,-1.6280
61,2,0.0000,146.5201,76.5667,185.9298,-0.2824,1.4909,1.6128,4.0837,-23.7174,0.2069,28.8756,1.4329,2.1206
62,2,325.7906,154.3199,416.5920,191.3434,0.5599,1.4899,1.6150,3.8696,-10.0271,0.4379,30.5452,-1.1899,-0.8727
62,2,568.0534,148.7146,601.4900,178.5417,-0.5199,1.4904,1.5997,3.8380,-1.0400,-0.1079,37.5118,-1.5523,-1.5246
63,2,0.0000,153.6946,51.4609,187.5709,2.4926,1.4954,1.6212,4.0231,-28.4498,0.3136,32.8780,-0.4967,0.2166
63,2,0.0000,144.6343,92.4687,184.5241,0.2384,1.5330,1.6225,4.0032,-23.4264,0.1562,29.1714,1.5671,2.2437
64,2,400.9008,155.1834,468.4039,178.9297,0.2746,1.4789,1.6349,4.0858,-11.0128,-0.1034,45.6854,-0.3465,-0.1099
64,2,0.0000,145.0461,87.2369,183.8379,-0.6553,1.4725,1.5750,3.7752,-23.4271,0.1282,28.8018,1.6913,2.3741
65,2,498.3282,149.6147,538.6946,178.5291,0.1955,1.4643,1.5800,3.8432,-4.6079,-0.1100,38.0166,-1.5361,-1.4155
65,2,50.4736,149.7025,143.9620,184.0477,-0.0822,1.4588,1.5994,3.8176,-22.8515,0.1522,31.9662,1.5313,2.1520
65,2,401.6086,155.5767,468.0569,179.3489,-0.3357,1.4767,1.6230,4.0084,-10.9554,-0.0751,45.4912,-0.3414,-0.1051
66,2,407.1963,155.6139,474.5218,179.4082,0.6346,1.4838,1.6315,4.0738,-10.6106,-0.0715,45.6803,-0.3459,-0.1176
66,2,0.0000,134.2476,47.0354,198.6632,0.0604,1.4900,1.5517,3.8499,-16.8156,0.4217,18.0547,-0.5805,0.1694
67,2,406.7319,156.2789,474.5798,180.0876,0.3760,1.4866,1.6343,4.0915,-10.6218,-0.0262,45.6783,-0.3593,-0.1308
67,2,95.0342,153.7261,182.5798,204.0901,-0.2495,1.4860,1.5605,3.6060,-14.9570,0.6976,22.8168,1.2248,1.8051
68,2,42.1390,147.2801,143.9046,182.5979,0.3390,1.4760,1.6203,4.1312,-22.7730,0.0892,31.6248,1.5528,2.1769
69,2,575.7000,144.1196,672.7578,178.8954,-0.1390,1.4829,1.6235,4.0563,0.8478,-0.0742,31.8117,-0.3918,-0.4185
69,2,543.0093,148.5647,579.8747,178.5171,-0.8013,1.4670,1.5708,3.8296,-2.2321,-0.1073,36.8223,-1.5388,-1.4783
70,2,540.6948,149.4603,582.9627,179.3692,0.4584,1.4642,1.5906,3.7989,-2.2019,-0.0605,36.7325,-1.4657,-1.4058
71,2,345.6910,151.7136,389.0066,185.9662,-0.0942,1.4801,1.6071,3.9298,-10.9297,0.2377,32.6505,-1.8189,-1.4959
71,2,507.6124,147.9408,549.8037,178.2541,-0.4716,1.4913,1.6528,4.1861,-3.9662,-0.1235,37.2114,-1.5402,-1.4340
72,2,505.6483,148.0376,546.5869,178.3828,1.2861,1.5000,1.6400,4.0261,-4.1114,-0.1163,37.2570,-1.5516,-1.4417
73,2,229.3436,138.4003,299.9674,173.6016,0.6738,1.4653,1.5830,3.7310,-15.3684,-0.3302,32.0809,1.5155,1.9623
73,2,374.2118,152.4128,418.0336,179.8581,0.6365,1.4710,1.5926,3.8279,-11.7512,-0.0367,39.9501,-1.6409,-1.3548
74,2,529.2752,148.4714,561.7030,178.6141,0.2673,1.4706,1.5905,3.8266,-3.0623,-0.1017,36.6950,-1.6335,-1.5503
74,2,246.0394,149.9984,350.1821,185.8155,0.0294,1.4986,1.5861,3.9590,-13.6506,0.2239,31.5449,-0.7924,-0.3840
75,2,497.5312,148.1192,549.8057,178.5954,1.3924,1.4759,1.6479,4.2509,-4.1663,-0.1036,36.7394,-1.4203,-1.3073
75,2,530.7732,148.5371,615.6760,178.8931,-0.1574,1.4773,1.6427,4.1493,-1.5576,-0.0809,35.3461,0.0140,0.0581
76,2,495.8945,148.5051,540.2839,178.6988,1.7537,1.4717,1.6179,3.9975,-4.4682,-0.0974,36.7407,-1.5166,-1.3956
77,2,436.6357,152.3271,513.1595,179.2481,0.8388,1.4720,1.6079,4.0329,-7.4622,-0.0739,40.6673,-0.6324,-0.4509
77,2,470.5312,149.1773,509.4742,179.5041,0.0210,1.4806,1.6345,4.0826,-5.9322,-0.0533,36.7450,-1.6399,-1.4798
78,2,497.2283,147.4870,546.8034,178.5260,1.2287,1.4934,1.6426,4.1719,-4.2228,-0.1064,36.4552,-1.4594,-1.3440
78,2,328.6527,156.6442,429.5069,197.9066,-0.3850,1.4554,1.5933,3.8088,-8.5716,0.6155,26.6524,-2.5536,-2.2424
79,2,496.1021,147.7652,550.6312,178.4085,1.3959,1.4686,1.6317,4.0667,-4.1372,-0.1124,36.3274,-1.3776,-1.2642
80,2,491.9877,149.1520,531.3518,179.4005,2.0987,1.4593,1.6091,3.8907,-4.7399,-0.0580,36.2169,-1.5980,-1.4679
80,2,162.4202,148.4549,255.7520,195.2429,-0.0498,1.5165,1.6371,4.0116,-13.9050,0.4794,25.0268,1.4024,1.9095
83,2,484.3891,148.6691,531.3710,180.2751,1.0211,1.5165,1.6530,4.0647,-4.8963,-0.0107,36.0223,-1.5211,-1.3860
83,2,266.7509,149.5145,367.6839,184.5882,-0.6760,1.4792,1.6155,3.9138,-12.5751,0.1739,31.0597,2.9042,3.2889
84,2,481.5297,148.7241,517.9853,180.0408,-0.1163,1.4964,1.6233,3.9769,-5.4121,-0.0233,35.9534,-1.7709,-1.6215
84,2,0.0000,141.2544,94.1118,188.3312,-0.2281,1.4790,1.5860,3.7139,-19.5957,0.2476,24.0830,1.5939,2.2769
85,2,0.0000,145.5576,40.0448,184.7092,0.1845,1.4822,1.6043,3.9056,-24.4890,0.1609,28.5682,-2.5046,-1.7959
85,2,404.6508,155.0333,471.3068,178.9868,0.1388,1.4913,1.5995,4.0131,-10.7909,-0.0996,45.6651,-0.3653,-0.1333
86,2,221.0112,141.9774,286.4800,175.1762,0.0388,1.4973,1.6484,4.2108,-17.1996,-0.2772,34.7908,1.4301,1.8892
86,2,168.6818,147.4216,293.2389,202.0149,-0.0280,1.5858,1.6612,4.1119,-11.8268,0.6265,22.6276,1.6205,2.1021
86,2,0.0000,156.6768,63.0078,188.4709,-0.7200,1.4748,1.5774,3.7090,-28.2584,0.3712,33.6158,3.1229,3.8220
86,2,404.2233,154.8682,470.6413,178.7732,-0.7358,1.4869,1.6046,3.9902,-10.8248,-0.1138,45.6607,-0.3717,-0.1389
87,2,475.5799,150.6574,512.0310,181.6999,2.1086,1.4675,1.6027,3.8856,-5.5361,0.0582,35.4355,-1.6728,-1.5178
87,2,404.4110,154.6109,472.3512,178.5273,1.2330,1.4873,1.6194,4.1192,-10.7649,-0.1301,45.6553,-0.3399,-0.1083
87,2,0.0000,132.9101,94.6236,194.3661,1.0652,1.4943,1.5616,3.8156,-16.1600,0.3387,18.9991,-0.6860,0.0188
88,2,476.5699,149.7540,522.9961,180.4682,2.3180,1.4518,1.5997,3.7961,-5.2154,-0.0003,35.3547,-1.5246,-1.3781
88,2,266.0081,148.7643,366.8386,184.5549,-0.0902,1.5157,1.6213,3.8663,-12.6321,0.1732,31.0988,2.9520,3.3378
89,2,0.0000,144.5298,28.9555,186.7783,3.0315,1.4978,1.6155,4.1307,-24.6825,0.2241,26.9130,-0.6154,0.1268
89,2,471.4439,150.8509,527.8620,181.7642,1.4492,1.4508,1.5976,3.7351,-5.1888,0.0608,35.1682,-1.3691,-1.2227
90,2,576.0738,147.1050,678.4136,183.0793,1.2448,1.5366,1.6654,4.3239,0.9948,0.1117,31.8627,-0.4354,-0.4666
90,2,466.8785,149.2712,525.5455,180.4716,1.0054,1.4616,1.6009,3.9284,-5.3601,-0.0001,35.2096,-1.3602,-1.2091
90,2,371.3869,153.6958,436.3774,191.5915,-0.6439,1.4662,1.6207,4.0180,-8.2856,0.4306,29.3720,1.5546,1.8295
91,2,247.5027,148.4429,346.4255,183.5835,1.4223,1.4631,1.5703,3.7319,-13.6271,0.1299,31.3876,-0.9083,-0.4987
91,2,176.0995,153.2383,299.8993,193.6593,0.5597,1.4605,1.6008,3.7893,-13.6751,0.4770,26.4424,3.0883,3.5656
91,2,575.9466,146.7434,672.4081,182.4712,0.4211,1.5348,1.6341,4.0479,0.8528,0.0862,31.9391,-0.4195,-0.4461
92,2,64.6763,145.2829,193.4984,185.1660,0.8643,1.4683,1.6170,3.9349,-18.8423,0.1733,28.1184,-1.0023,-0.4120
92,2,148.0736,159.3474,268.1792,213.2636,0.2258,1.5467,1.5647,3.5373,-12.2989,0.9415,22.1063,-1.4870,-0.9793
92,2,0.0000,154.3355,82.1923,183.6390,-0.7990,1.5001,1.6155,4.1118,-30.7159,0.1621,38.0116,-0.5945,0.0851
93,2,172.7469,152.9000,299.4245,196.1819,-0.0007,1.5666,1.6262,3.8850,-13.7545,0.5691,26.4557,3.1127,3.5921
94,2,0.0000,144.1904,29.6114,186.0216,0.2493,1.5007,1.5918,4.0219,-24.7490,0.1996,27.0100,-0.4902,0.2516
94,2,405.4265,157.2391,471.6424,180.9226,-0.6793,1.4809,1.6234,4.0109,-10.7516,0.0278,45.6364,-0.3374,-0.1060
95,2,402.1452,155.7434,470.0108,179.5213,1.3859,1.4789,1.6405,4.1161,-10.8850,-0.0637,45.5272,-0.3273,-0.0927
96,2,402.6026,154.8258,470.5671,178.9599,0.0990,1.5033,1.6090,4.1274,-10.8821,-0.1013,45.6601,-0.3359,-0.1019
97,2,526.1782,146.2359,565.6362,178.7418,0.7401,1.4744,1.6189,3.9796,-2.8255,-0.0888,34.2779,-1.5794,-1.4971
97,2,400.7038,155.8404,467.2937,179.6194,-0.7269,1.4821,1.6239,4.0151,-11.0412,-0.0573,45.6304,-0.3544,-0.1170
98,2,406.7842,155.5763,474.8952,179.2665,1.2710,1.4809,1.6420,4.1363,-10.6442,-0.0812,45.8211,-0.3454,-0.1171
98,2,359.3940,150.6378,390.0707,178.0448,-0.3159,1.4601,1.5792,3.6833,-13.0161,-0.1445,40.0154,-1.8737,-1.5592
99,2,421.6557,151.4396,473.1626,183.4305,0.4182,1.4759,1.6208,4.0137,-7.6611,0.1367,34.6253,-1.5674,-1.3496
99,2,402.4448,155.2744,469.1795,179.0873,-0.4315,1.4833,1.6291,4.0366,-10.9319,-0.0928,45.6590,-0.3453,-0.1103
100,2,445.9994,152.4265,507.4346,184.7624,1.5165,1.4720,1.6194,3.9119,-6.1554,0.1955,34.2560,-1.3773,-1.1995
100,2,401.1709,155.7129,468.7000,179.5220,0.1123,1.4836,1.6340,4.0775,-10.9843,-0.0639,45.6450,-0.3517,-0.1156
100,2,439.6628,154.3480,517.7857,181.4585,-0.3727,1.4930,1.6158,4.1279,-7.2436,0.0542,40.5677,-0.4565,-0.2798
101,2,400.5581,155.0935,467.9312,178.8170,1.0977,1.4758,1.6360,4.0860,-11.0269,-0.1107,45.6297,-0.3351,-0.0980
101,2,441.5812,152.8854,508.6545,185.3616,0.2037,1.4752,1.6132,3.9183,-6.2243,0.2223,34.2192,-1.2880,-1.1081
101,2,24.0108,151.9456,128.1387,183.5564,-0.6467,1.4670,1.5572,3.7355,-25.1629,0.1433,33.6971,-0.0599,0.5815
101,2,372.1205,150.8207,419.7841,178.6218,-0.6523,1.4838,1.6186,3.9425,-11.7667,-0.1102,39.9909,-1.5945,-1.3083
102,2,243.1777,144.4024,363.7295,187.5466,1.1707,1.4583,1.6030,3.8338,-10.9060,0.2397,25.5600,2.6077,3.0110
102,2,403.6388,155.1470,468.9270,179.0713,-0.7450,1.4916,1.5962,3.9507,-10.9024,-0.0938,45.6630,-0.3438,-0.1094
103,2,406.1282,155.7556,473.3080,179.3862,0.7192,1.4779,1.6359,4.0896,-10.7117,-0.0731,45.7926,-0.3333,-0.1035
105,2,250.3523,146.4391,370.6700,192.6568,0.0575,1.5470,1.6170,3.7828,-10.5560,0.4085,25.3317,2.5981,2.9929
105,2,0.0000,141.9812,103.6046,186.9133,-0.5276,1.4877,1.5980,3.9374,-20.7008,0.2139,25.4795,-0.9665,-0.2842
106,2,451.4903,149.1772,494.9553,183.6481,1.0466,1.5392,1.6518,4.0909,-6.2292,0.1420,33.6762,-1.6579,-1.4750
106,2,0.0000,139.7301,76.0963,196.1666,-0.4970,1.4757,1.5941,3.8629,-16.8539,0.4112,20.2690,-2.5079,-1.8142
107,2,396.3202,154.1086,432.3118,178.0841,-0.6444,1.4877,1.5780,3.8788,-12.4274,-0.1636,46.2620,1.4965,1.7589
108,2,254.7966,147.4965,367.1970,190.1274,-0.3589,1.4619,1.5706,3.5782,-10.5253,0.3317,25.4779,2.8702,3.2620
108,2,0.0000,128.9444,50.0529,190.4976,-0.6302,1.4962,1.6019,4.0192,-17.5494,0.2446,19.0006,-0.6193,0.1264
108,2,532.6380,150.8508,568.2769,184.1671,-0.6728,1.4556,1.5554,3.5190,-2.5312,0.1617,32.6956,-1.6420,-1.5647
108,2,388.6118,154.8899,424.8999,178.7660,-0.7869,1.4743,1.5970,3.9358,-12.8433,-0.1165,45.9848,-1.6636,-1.3913
109,2,0.0000,130.7796,34.6028,196.7985,0.4759,1.5032,1.5749,4.0214,-17.4974,0.3727,18.2077,-0.9921,-0.2266
109,2,402.1472,151.6733,450.2685,184.6155,0.2639,1.4589,1.5945,3.8048,-8.3646,0.1837,33.2694,-1.6527,-1.4064
109,2,439.9672,149.5931,517.4056,177.1757,-0.0609,1.4984,1.6088,4.0753,-7.2174,-0.1961,40.3976,-0.4461,-0.2693
109,2,485.1279,150.0002,574.2735,183.5319,-0.4647,1.4785,1.6096,3.9051,-3.3763,0.1352,32.0294,3.1134,3.2184
110,2,504.0693,151.4563,573.1600,185.2813,-0.2975,1.4544,1.5803,3.6576,-3.1089,0.2071,32.3536,-2.1664,-2.0706
111,2,478.7028,151.9825,564.0959,186.0293,0.8148,1.4463,1.5755,3.7904,-3.8128,0.2364,31.8095,-2.4870,-2.3677
112,2,401.6762,156.1940,468.9866,179.9613,0.4688,1.4837,1.6334,4.0764,-10.9614,-0.0346,45.6518,-0.3415,-0.1058
112,2,2.6482,147.6143,128.8760,186.5001,-0.6437,1.4895,1.5806,3.8375,-21.7283,0.2313,28.6371,-0.4589,0.1902
112,2,468.1976,149.8992,518.2606,183.9511,-0.7478,1.4788,1.5916,3.9146,-5.1166,0.1513,32.6812,-1.5408,-1.3855
113,2,402.7777,155.6517,473.9155,179.9796,1.1095,1.5189,1.6029,4.3208,-10.7720,-0.0334,45.6871,-0.3450,-0.1134
113,2,145.1643,142.1403,205.3342,184.8232,-0.6029,1.4911,1.6134,3.9720,-16.3509,0.1526,26.7753,0.9396,1.4878
114,2,57.8469,142.4839,204.7113,187.2309,2.0630,1.4983,1.6641,4.2251,-16.8581,0.2269,25.3808,-0.4786,0.1077
114,2,410.2684,151.8462,453.3692,185.5893,-0.2342,1.4733,1.6026,3.8817,-8.0161,0.2237,32.9037,-1.7187,-1.4797
115,2,136.5476,142.0912,242.7361,184.9087,-0.6331,1.4919,1.5956,3.9935,-15.5323,0.1551,26.6441,1.5926,2.1204
115,2,284.2645,151.4794,349.9070,186.2086,-0.7192,1.4651,1.5609,3.5938,-12.8211,0.2423,31.6402,1.5436,1.9286
116,2,549.0022,149.0951,592.3959,179.8770,-0.3624,1.4997,1.6305,3.9140,-1.8428,-0.0327,36.6119,-1.7812,-1.7309
116,2,433.8693,152.1335,512.4700,179.2451,-0.3651,1.4775,1.6256,4.1276,-7.5394,-0.0739,40.5387,-0.6025,-0.4187
116,2,252.2003,144.7460,370.6825,192.2312,-0.3975,1.5361,1.6068,3.6730,-10.1566,0.3810,24.4099,2.6763,3.0706
117,2,573.2965,147.4152,668.1060,182.7264,0.0073,1.5203,1.6218,4.0073,0.7053,0.0973,32.0620,-0.4672,-0.4892
117,2,483.8216,149.9918,528.1057,183.8102,-0.3271,1.4902,1.6330,4.0899,-4.6065,0.1473,33.2211,-1.6015,-1.4637
117,2,517.2308,158.0189,624.8109,199.2214,-0.6477,1.4637,1.6069,3.8232,-1.2215,0.6666,25.9971,-3.0984,-3.0515
120,2,13.6661,131.7464,198.9506,190.5029,0.5085,1.4948,1.6092,4.0966,-13.8042,0.2561,19.7752,-0.5776,0.0318
120,2,371.9723,151.0746,425.3559,178.6022,-0.2694,1.4762,1.6096,3.8801,-11.6691,-0.1119,40.1936,-1.4800,-1.1974
121,2,3.9051,136.3102,193.0801,196.0477,3.6101,1.4975,1.6326,4.1213,-13.9187,0.3913,19.5911,-0.6285,-0.0108
122,2,5.5813,138.2836,192.0510,195.1362,1.5201,1.4934,1.5929,4.0076,-14.1623,0.3860,19.9913,-0.3429,0.2735
123,2,364.0231,151.2644,397.7874,178.7058,-0.4901,1.4682,1.5958,3.8489,-12.6874,-0.1058,40.1547,-1.8152,-1.5091
123,2,372.8712,151.8224,435.7930,173.3604,-0.5739,1.4939,1.6307,4.1620,-14.7795,-0.5449,52.1876,-0.6376,-0.3616
124,2,0.0000,156.6876,59.2244,190.1218,-0.7186,1.5372,1.6128,3.8628,-28.5881,0.4438,33.6039,-0.1580,0.5469
128,2,544.8649,148.6845,579.0375,175.0892,-0.0917,1.4833,1.6167,3.9080,-2.5488,-0.3394,42.5285,1.6256,1.6855
128,2,0.0000,145.1315,109.9242,188.2879,-0.4339,1.4945,1.6121,3.9684,-20.8525,0.2712,26.2485,-0.5862,0.0851
129,2,239.1422,145.4930,343.9910,184.7925,2.1270,1.6416,1.6461,3.9208,-13.5634,0.1808,30.7495,2.9274,3.3429
129,2,410.1957,154.6999,477.3380,178.4692,0.0159,1.4809,1.6283,4.0442,-10.4469,-0.1345,45.7986,-0.3728,-0.1485
129,2,374.8506,152.9310,442.5292,189.1496,-0.1240,1.4909,1.5856,3.7120,-8.5543,0.3575,31.0345,-1.4554,-1.1864
130,2,0.0000,137.6914,147.2305,193.8937,1.0667,1.4952,1.5908,3.8702,-15.2711,0.3579,19.7114,-0.0577,0.6015
130,2,405.1761,157.4774,472.7691,181.2601,0.6582,1.4857,1.6277,4.0825,-10.7196,0.0488,45.6276,-0.3495,-0.1188
130,2,228.2409,138.9850,299.6244,174.8756,0.3019,1.4898,1.6030,4.0529,-15.3958,-0.2705,32.0911,1.4799,1.9273
131,2,0.0000,137.4553,141.4773,193.6148,0.0606,1.4846,1.6085,3.9874,-15.4250,0.3483,19.5925,-0.0519,0.6151
132,2,404.4402,156.1081,471.1140,179.8629,-0.8418,1.4850,1.6218,4.0098,-10.8267,-0.0413,45.7640,-0.3753,-0.1430
133,2,402.4321,155.7938,469.8788,179.6158,0.7079,1.4811,1.6326,4.0682,-10.8768,-0.0574,45.5209,-0.3452,-0.1107
133,2,0.0000,138.5754,113.5034,196.8711,0.4764,1.4844,1.5819,3.8231,-15.9554,0.4185,19.2818,-0.2765,0.4148
133,2,0.0000,144.2787,117.4370,183.8066,-0.6245,1.4948,1.6233,3.9578,-22.4109,0.1266,28.7430,-0.8333,-0.1710
135,2,404.7468,155.3946,471.7496,179.1821,0.1744,1.4848,1.6270,4.0522,-10.7966,-0.0867,45.7575,-0.3541,-0.1224
136,2,401.7282,153.2921,468.6597,177.1857,0.3390,1.4767,1.6287,4.0391,-10.9442,-0.2190,45.5433,-0.3447,-0.1089
137,2,403.9967,154.8833,472.3268,179.0483,0.6172,1.5057,1.6072,4.1371,-10.7861,-0.0955,45.6919,-0.3502,-0.1184
137,2,174.4186,162.5573,279.3445,207.7897,-0.5990,1.4809,1.6275,4.0068,-13.3336,0.8950,25.1548,1.5609,2.0483
138,2,400.4227,155.1170,467.5887,178.9148,0.6289,1.4808,1.6333,4.0714,-11.0415,-0.1042,45.6267,-0.3364,-0.0989
139,2,0.0000,130.8796,56.9272,194.7997,0.7187,1.4951,1.5953,3.9623,-16.7783,0.3361,18.2176,-0.5263,0.2179
139,2,406.3432,155.4861,473.5621,179.2754,0.1265,1.4867,1.6336,4.0670,-10.6979,-0.0806,45.8087,-0.3565,-0.1270
139,2,0.0000,152.1123,224.5390,315.4927,-0.5948,1.6502,1.6407,4.0033,-6.5353,1.3651,9.1180,-2.3723,-1.7504
140,2,405.9623,156.2000,473.7388,179.9198,0.5391,1.4848,1.6398,4.1132,-10.7023,-0.0375,45.7948,-0.3452,-0.1156
141,2,0.0000,135.9517,55.7788,200.2299,2.4880,1.4999,1.6072,4.0601,-16.8770,0.4620,18.2561,-0.5624,0.1837
141,2,406.1951,155.3290,474.0873,179.1907,0.5010,1.4858,1.6318,4.0990,-10.6512,-0.0860,45.6596,-0.3537,-0.1246
141,2,268.5055,155.6617,366.7079,190.5325,0.3045,1.4793,1.5815,3.7290,-12.5677,0.4271,31.0448,-3.2882,-2.9036
142,2,402.5561,155.0839,469.9091,178.9678,0.2658,1.4870,1.6371,4.0698,-10.9073,-0.1008,45.6723,-0.3504,-0.1160
142,2,1124.7870,144.4654,1223.0000,369.0000,-0.4358,1.6372,1.6830,4.3754,6.8636,1.3986,5.6201,-0.0319,-0.9165
143,2,406.9894,155.7593,475.0198,179.5252,0.9616,1.4866,1.6424,4.1232,-10.6343,-0.0639,45.8278,-0.3529,-0.1249
143,2,545.8672,146.0011,581.0921,178.3857,-0.0832,1.4700,1.6061,3.9636,-1.9837,-0.1073,34.3571,-1.6020,-1.5444
144,2,174.6655,154.0620,298.3294,194.5526,2.5381,1.4569,1.5905,3.7804,-13.7116,0.5071,26.4184,-3.2433,-2.7646
144,2,402.7099,154.9918,469.8299,178.8354,0.3525,1.4845,1.6339,4.0626,-10.9059,-0.1096,45.6743,-0.3444,-0.1101
